<svg width="103" height="24" viewBox="0 0 103 24" fill="none" xmlns="http://www.w3.org/2000/svg">
<path d="M43.3324 23.6562H27V20.9398H29.7163V4.02292H27V1.30659H36.3868V4.02292H32.8453V20.9398H40.616L41.3037 16.0573L44.0201 16.298L43.3324 23.6562Z" fill="#E8932E"/>
<path d="M47.866 4.67622V1.13467H50.9949V4.67622H47.866ZM53.5737 23.6562H45.5622V21.3181H48.0723V10.659H45.4591V8.28653H51.098V21.3181H53.5737V23.6562Z" fill="#E8932E"/>
<path d="M71.6642 15.6103C71.6642 17.6963 71.1141 19.6218 70.0138 21.3868C68.9135 23.1289 67.1599 24 64.753 24C62.2545 24 60.5009 23.0602 59.4923 21.1805C59.4694 21.3639 59.4121 21.7765 59.3204 22.4183C59.2516 23.0602 59.2058 23.4728 59.1828 23.6562H56.1571C56.2717 22.9456 56.3863 22.2006 56.5009 21.4212C56.6155 20.6418 56.6728 19.8739 56.6728 19.1175V2.37249H54.1972V0H59.6986V11.3811C60.1571 10.4642 60.7989 9.67335 61.6241 9.0086C62.4722 8.32092 63.6298 7.97708 65.0969 7.97708C66.9995 7.97708 68.5697 8.64183 69.8075 9.97135C71.0453 11.3009 71.6642 13.1805 71.6642 15.6103ZM68.5009 15.851C68.5009 14.086 68.0883 12.745 67.2631 11.8281C66.4608 10.9112 65.4522 10.4527 64.2373 10.4527C62.839 10.4527 61.7387 10.9685 60.9364 12C60.1341 13.0315 59.7215 14.1089 59.6986 15.2321V16.9513C59.6986 18.235 60.1112 19.3238 60.9364 20.2178C61.7616 21.0888 62.8046 21.5244 64.0654 21.5244C65.5553 21.5244 66.6671 20.9742 67.4006 19.8739C68.1341 18.7736 68.5009 17.4327 68.5009 15.851Z" fill="#E8932E"/>
<path d="M88.0331 19.1175C87.8727 20.447 87.2194 21.5931 86.0732 22.5559C84.9271 23.5186 83.3684 24 81.397 24C79.1735 24 77.3741 23.3352 75.9987 22.0057C74.6234 20.6762 73.9357 18.7507 73.9357 16.2292C73.9357 13.8453 74.5775 11.8739 75.8612 10.3152C77.1449 8.75645 78.9214 7.97708 81.1907 7.97708C83.2996 7.97708 84.9386 8.63037 86.1076 9.93696C87.2767 11.2436 87.8727 12.8252 87.8956 14.6819C87.8956 15.3009 87.8268 15.9542 87.6893 16.6418H77.099C77.2366 19.8968 78.738 21.5244 81.6033 21.5244C82.7953 21.5244 83.6893 21.2378 84.2853 20.6648C84.9042 20.0917 85.3168 19.404 85.5231 18.6017L88.0331 19.1175ZM84.7667 14.6132C84.8583 13.6046 84.6062 12.6418 84.0102 11.7249C83.4371 10.7851 82.4744 10.3152 81.122 10.3152C79.8612 10.3152 78.9099 10.7393 78.2681 11.5874C77.6492 12.4126 77.271 13.4212 77.1334 14.6132H84.7667Z" fill="#E8932E"/>
<path d="M99.1609 8.04585C100.238 8.04585 101.155 8.32092 101.912 8.87106L102.531 13.1691L100.158 13.4441L99.5735 10.7966C99.1838 10.6361 98.7827 10.5559 98.3701 10.5559C97.5907 10.5559 96.9374 10.8883 96.4102 11.553C95.883 12.1948 95.6194 13.043 95.6194 14.0974V21.3181H98.9202V23.6562H90.1179V21.3181H92.5936V10.659H90.0148V8.28653H95.4131V11.106C95.711 10.235 96.1695 9.51289 96.7884 8.93983C97.4302 8.34384 98.2211 8.04585 99.1609 8.04585Z" fill="#E8932E"/>
<path d="M4 19.5C4 18.8369 4.26339 18.201 4.73223 17.7322C5.20107 17.2634 5.83696 17 6.5 17H20" stroke="#E8932E" stroke-width="2" stroke-linecap="round" stroke-linejoin="round"/>
<path d="M6.5 1.99997H20V22H6.5C5.83696 22 5.20107 21.7366 4.73223 21.2677C4.26339 20.7989 4 20.163 4 19.5V4.49997C4 3.83693 4.26339 3.20104 4.73223 2.7322C5.20107 2.26336 5.83696 1.99997 6.5 1.99997V1.99997Z" stroke="#E8932E" stroke-width="2" stroke-linecap="round" stroke-linejoin="round"/>
</svg>
